example/RISCV_ISA/Dino_test/Wave_files2/recursive_sum.vcd
$date
	Fri Apr 17 12:47:56 2020
$end
$version
	ModelSim Version 10.7c
$end
$timescale
	1ns
$end
$scope module cpu_tb $end
$var wire 1 ! clk $end
$var wire 1 " rst $end
$scope module IF_CPU $end
$scope module IF_ISA $end
$var wire 1 ( clk $end
$var wire 1 ) rst $end
$var wire 1 0 pcReg_signal [31] $end
$var wire 1 1 pcReg_signal [30] $end
$var wire 1 2 pcReg_signal [29] $end
$var wire 1 3 pcReg_signal [28] $end
$var wire 1 4 pcReg_signal [27] $end
$var wire 1 5 pcReg_signal [26] $end
$var wire 1 6 pcReg_signal [25] $end
$var wire 1 7 pcReg_signal [24] $end
$var wire 1 8 pcReg_signal [23] $end
$var wire 1 9 pcReg_signal [22] $end
$var wire 1 : pcReg_signal [21] $end
$var wire 1 ; pcReg_signal [20] $end
$var wire 1 < pcReg_signal [19] $end
$var wire 1 = pcReg_signal [18] $end
$var wire 1 > pcReg_signal [17] $end
$var wire 1 ? pcReg_signal [16] $end
$var wire 1 @ pcReg_signal [15] $end
$var wire 1 A pcReg_signal [14] $end
$var wire 1 B pcReg_signal [13] $end
$var wire 1 C pcReg_signal [12] $end
$var wire 1 D pcReg_signal [11] $end
$var wire 1 E pcReg_signal [10] $end
$var wire 1 F pcReg_signal [9] $end
$var wire 1 G pcReg_signal [8] $end
$var wire 1 H pcReg_signal [7] $end
$var wire 1 I pcReg_signal [6] $end
$var wire 1 J pcReg_signal [5] $end
$var wire 1 K pcReg_signal [4] $end
$var wire 1 L pcReg_signal [3] $end
$var wire 1 M pcReg_signal [2] $end
$var wire 1 N pcReg_signal [1] $end
$var wire 1 O pcReg_signal [0] $end
$upscope $end
$scope module IF_Regs $end
$var wire 1 P clk $end
$upscope $end
$upscope $end
$scope module IF_Memory $end
$var wire 1 R clk $end
$upscope $end
$upscope $end
$enddefinitions $end
#0
0!
0(
0P
0R
1"
1)
x0
x1
x2
x3
x4
x5
x6
x7
x8
x9
x:
x;
x<
x=
x>
x?
x@
xA
xB
xC
xD
xE
xF
xG
xH
xI
xJ
xK
xL
xM
xN
xO
1"
1)
#10
1!
1(
1P
1R
00
01
02
03
04
05
06
07
08
09
0:
0;
0<
0=
0>
0?
0@
0A
0B
0C
0D
0E
0F
0G
0H
0I
0J
0K
0L
0M
0N
0O
#20
0"
0)
0!
0(
0P
0R
#30
1!
1(
1P
1R
#40
0!
0(
0P
0R
#50
1!
1(
1P
1R
1M
#60
0!
0(
0P
0R
#70
1!
1(
1P
1R
#80
0!
0(
0P
0R
#90
1!
1(
1P
1R
1L
0M
#100
0!
0(
0P
0R
#110
1!
1(
1P
1R
#120
0!
0(
0P
0R
#130
1!
1(
1P
1R
1J
0L
#140
0!
0(
0P
0R
#150
1!
1(
1P
1R
#160
0!
0(
0P
0R
#170
1!
1(
1P
1R
1M
#180
0!
0(
0P
0R
#190
1!
1(
1P
1R
#200
0!
0(
0P
0R
#210
1!
1(
1P
1R
1I
0M
#220
0!
0(
0P
0R
#230
1!
1(
1P
1R
#240
0!
0(
0P
0R
#250
1!
1(
1P
1R
1M
#260
0!
0(
0P
0R
#270
1!
1(
1P
1R
#280
0!
0(
0P
0R
#290
1!
1(
1P
1R
#300
0!
0(
0P
0R
#310
1!
1(
1P
1R
#320
0!
0(
0P
0R
#330
1!
1(
1P
1R
1L
0M
#340
0!
0(
0P
0R
#350
1!
1(
1P
1R
#360
0!
0(
0P
0R
#370
1!
1(
1P
1R
0I
#380
0!
0(
0P
0R
#390
1!
1(
1P
1R
#400
0!
0(
0P
0R
#410
1!
1(
1P
1R
1M
#420
0!
0(
0P
0R
#430
1!
1(
1P
1R
#440
0!
0(
0P
0R
#450
1!
1(
1P
1R
1K
0L
0M
#460
0!
0(
0P
0R
#470
1!
1(
1P
1R
#480
0!
0(
0P
0R
#490
1!
1(
1P
1R
1M
#500
0!
0(
0P
0R
#510
1!
1(
1P
1R
#520
0!
0(
0P
0R
#530
1!
1(
1P
1R
1I
0K
0M
#540
0!
0(
0P
0R
#550
1!
1(
1P
1R
#560
0!
0(
0P
0R
#570
1!
1(
1P
1R
1M
#580
0!
0(
0P
0R
#590
1!
1(
1P
1R
#600
0!
0(
0P
0R
#610
1!
1(
1P
1R
#620
0!
0(
0P
0R
#630
1!
1(
1P
1R
#640
0!
0(
0P
0R
#650
1!
1(
1P
1R
1L
0M
#660
0!
0(
0P
0R
#670
1!
1(
1P
1R
#680
0!
0(
0P
0R
#690
1!
1(
1P
1R
0I
1K
#700
0!
0(
0P
0R
#710
1!
1(
1P
1R
#720
0!
0(
0P
0R
#730
1!
1(
1P
1R
1M
#740
0!
0(
0P
0R
#750
1!
1(
1P
1R
#760
0!
0(
0P
0R
#770
1!
1(
1P
1R
0K
0L
0M
#780
0!
0(
0P
0R
#790
1!
1(
1P
1R
#800
0!
0(
0P
0R
#810
1!
1(
1P
1R
1M
#820
0!
0(
0P
0R
#830
1!
1(
1P
1R
#840
0!
0(
0P
0R
#850
1!
1(
1P
1R
1I
0M
#860
0!
0(
0P
0R
#870
1!
1(
1P
1R
#880
0!
0(
0P
0R
#890
1!
1(
1P
1R
1M
#900
0!
0(
0P
0R
#910
1!
1(
1P
1R
#920
0!
0(
0P
0R
#930
1!
1(
1P
1R
#940
0!
0(
0P
0R
#950
1!
1(
1P
1R
#960
0!
0(
0P
0R
#970
1!
1(
1P
1R
1L
0M
#980
0!
0(
0P
0R
#990
1!
1(
1P
1R
#1000
0!
0(
0P
0R
#1010
1!
1(
1P
1R
0I
#1020
0!
0(
0P
0R
#1030
1!
1(
1P
1R
#1040
0!
0(
0P
0R
#1050
1!
1(
1P
1R
1M
#1060
0!
0(
0P
0R
#1070
1!
1(
1P
1R
#1080
0!
0(
0P
0R
#1090
1!
1(
1P
1R
1K
0L
0M
#1100
0!
0(
0P
0R
#1110
1!
1(
1P
1R
#1120
0!
0(
0P
0R
#1130
1!
1(
1P
1R
1M
#1140
0!
0(
0P
0R
#1150
1!
1(
1P
1R
#1160
0!
0(
0P
0R
#1170
1!
1(
1P
1R
1I
0K
0M
#1180
0!
0(
0P
0R
#1190
1!
1(
1P
1R
#1200
0!
0(
0P
0R
#1210
1!
1(
1P
1R
1M
#1220
0!
0(
0P
0R
#1230
1!
1(
1P
1R
#1240
0!
0(
0P
0R
#1250
1!
1(
1P
1R
#1260
0!
0(
0P
0R
#1270
1!
1(
1P
1R
#1280
0!
0(
0P
0R
#1290
1!
1(
1P
1R
1L
0M
#1300
0!
0(
0P
0R
#1310
1!
1(
1P
1R
#1320
0!
0(
0P
0R
#1330
1!
1(
1P
1R
0I
1K
#1340
0!
0(
0P
0R
#1350
1!
1(
1P
1R
#1360
0!
0(
0P
0R
#1370
1!
1(
1P
1R
1M
#1380
0!
0(
0P
0R
#1390
1!
1(
1P
1R
#1400
0!
0(
0P
0R
#1410
1!
1(
1P
1R
0K
0L
0M
#1420
0!
0(
0P
0R
#1430
1!
1(
1P
1R
#1440
0!
0(
0P
0R
#1450
1!
1(
1P
1R
1M
#1460
0!
0(
0P
0R
#1470
1!
1(
1P
1R
#1480
0!
0(
0P
0R
#1490
1!
1(
1P
1R
1I
0M
#1500
0!
0(
0P
0R
#1510
1!
1(
1P
1R
#1520
0!
0(
0P
0R
#1530
1!
1(
1P
1R
1M
#1540
0!
0(
0P
0R
#1550
1!
1(
1P
1R
#1560
0!
0(
0P
0R
#1570
1!
1(
1P
1R
#1580
0!
0(
0P
0R
#1590
1!
1(
1P
1R
#1600
0!
0(
0P
0R
#1610
1!
1(
1P
1R
1L
0M
#1620
0!
0(
0P
0R
#1630
1!
1(
1P
1R
#1640
0!
0(
0P
0R
#1650
1!
1(
1P
1R
0I
#1660
0!
0(
0P
0R
#1670
1!
1(
1P
1R
#1680
0!
0(
0P
0R
#1690
1!
1(
1P
1R
1M
#1700
0!
0(
0P
0R
#1710
1!
1(
1P
1R
#1720
0!
0(
0P
0R
#1730
1!
1(
1P
1R
1K
0L
0M
#1740
0!
0(
0P
0R
#1750
1!
1(
1P
1R
#1760
0!
0(
0P
0R
#1770
1!
1(
1P
1R
1M
#1780
0!
0(
0P
0R
#1790
1!
1(
1P
1R
#1800
0!
0(
0P
0R
#1810
1!
1(
1P
1R
1I
0K
0M
#1820
0!
0(
0P
0R
#1830
1!
1(
1P
1R
#1840
0!
0(
0P
0R
#1850
1!
1(
1P
1R
1M
#1860
0!
0(
0P
0R
#1870
1!
1(
1P
1R
#1880
0!
0(
0P
0R
#1890
1!
1(
1P
1R
#1900
0!
0(
0P
0R
#1910
1!
1(
1P
1R
#1920
0!
0(
0P
0R
#1930
1!
1(
1P
1R
1L
0M
#1940
0!
0(
0P
0R
#1950
1!
1(
1P
1R
#1960
0!
0(
0P
0R
#1970
1!
1(
1P
1R
0I
1K
#1980
0!
0(
0P
0R
#1990
1!
1(
1P
1R
#2000
0!
0(
0P
0R
#2010
1!
1(
1P
1R
1M
#2020
0!
0(
0P
0R
#2030
1!
1(
1P
1R
#2040
0!
0(
0P
0R
#2050
1!
1(
1P
1R
0K
0L
0M
#2060
0!
0(
0P
0R
#2070
1!
1(
1P
1R
#2080
0!
0(
0P
0R
#2090
1!
1(
1P
1R
1M
#2100
0!
0(
0P
0R
#2110
1!
1(
1P
1R
#2120
0!
0(
0P
0R
#2130
1!
1(
1P
1R
1I
0M
#2140
0!
0(
0P
0R
#2150
1!
1(
1P
1R
#2160
0!
0(
0P
0R
#2170
1!
1(
1P
1R
1M
#2180
0!
0(
0P
0R
#2190
1!
1(
1P
1R
#2200
0!
0(
0P
0R
#2210
1!
1(
1P
1R
#2220
0!
0(
0P
0R
#2230
1!
1(
1P
1R
#2240
0!
0(
0P
0R
#2250
1!
1(
1P
1R
1L
0M
#2260
0!
0(
0P
0R
#2270
1!
1(
1P
1R
#2280
0!
0(
0P
0R
#2290
1!
1(
1P
1R
0I
#2300
0!
0(
0P
0R
#2310
1!
1(
1P
1R
#2320
0!
0(
0P
0R
#2330
1!
1(
1P
1R
1M
#2340
0!
0(
0P
0R
#2350
1!
1(
1P
1R
#2360
0!
0(
0P
0R
#2370
1!
1(
1P
1R
1K
0L
0M
#2380
0!
0(
0P
0R
#2390
1!
1(
1P
1R
#2400
0!
0(
0P
0R
#2410
1!
1(
1P
1R
1M
#2420
0!
0(
0P
0R
#2430
1!
1(
1P
1R
#2440
0!
0(
0P
0R
#2450
1!
1(
1P
1R
1I
0K
0M
#2460
0!
0(
0P
0R
#2470
1!
1(
1P
1R
#2480
0!
0(
0P
0R
#2490
1!
1(
1P
1R
1M
#2500
0!
0(
0P
0R
#2510
1!
1(
1P
1R
#2520
0!
0(
0P
0R
#2530
1!
1(
1P
1R
#2540
0!
0(
0P
0R
#2550
1!
1(
1P
1R
#2560
0!
0(
0P
0R
#2570
1!
1(
1P
1R
1L
0M
#2580
0!
0(
0P
0R
#2590
1!
1(
1P
1R
#2600
0!
0(
0P
0R
#2610
1!
1(
1P
1R
0I
1K
#2620
0!
0(
0P
0R
#2630
1!
1(
1P
1R
#2640
0!
0(
0P
0R
#2650
1!
1(
1P
1R
1M
#2660
0!
0(
0P
0R
#2670
1!
1(
1P
1R
#2680
0!
0(
0P
0R
#2690
1!
1(
1P
1R
0K
0L
0M
#2700
0!
0(
0P
0R
#2710
1!
1(
1P
1R
#2720
0!
0(
0P
0R
#2730
1!
1(
1P
1R
1M
#2740
0!
0(
0P
0R
#2750
1!
1(
1P
1R
#2760
0!
0(
0P
0R
#2770
1!
1(
1P
1R
1I
0M
#2780
0!
0(
0P
0R
#2790
1!
1(
1P
1R
#2800
0!
0(
0P
0R
#2810
1!
1(
1P
1R
1M
#2820
0!
0(
0P
0R
#2830
1!
1(
1P
1R
#2840
0!
0(
0P
0R
#2850
1!
1(
1P
1R
#2860
0!
0(
0P
0R
#2870
1!
1(
1P
1R
#2880
0!
0(
0P
0R
#2890
1!
1(
1P
1R
1L
0M
#2900
0!
0(
0P
0R
#2910
1!
1(
1P
1R
#2920
0!
0(
0P
0R
#2930
1!
1(
1P
1R
0I
#2940
0!
0(
0P
0R
#2950
1!
1(
1P
1R
#2960
0!
0(
0P
0R
#2970
1!
1(
1P
1R
1M
#2980
0!
0(
0P
0R
#2990
1!
1(
1P
1R
#3000
0!
0(
0P
0R
#3010
1!
1(
1P
1R
1K
0L
0M
#3020
0!
0(
0P
0R
#3030
1!
1(
1P
1R
#3040
0!
0(
0P
0R
#3050
1!
1(
1P
1R
1M
#3060
0!
0(
0P
0R
#3070
1!
1(
1P
1R
#3080
0!
0(
0P
0R
#3090
1!
1(
1P
1R
1I
0K
0M
#3100
0!
0(
0P
0R
#3110
1!
1(
1P
1R
#3120
0!
0(
0P
0R
#3130
1!
1(
1P
1R
1M
#3140
0!
0(
0P
0R
#3150
1!
1(
1P
1R
#3160
0!
0(
0P
0R
#3170
1!
1(
1P
1R
#3180
0!
0(
0P
0R
#3190
1!
1(
1P
1R
#3200
0!
0(
0P
0R
#3210
1!
1(
1P
1R
1L
0M
#3220
0!
0(
0P
0R
#3230
1!
1(
1P
1R
#3240
0!
0(
0P
0R
#3250
1!
1(
1P
1R
0I
1K
#3260
0!
0(
0P
0R
#3270
1!
1(
1P
1R
#3280
0!
0(
0P
0R
#3290
1!
1(
1P
1R
1M
#3300
0!
0(
0P
0R
#3310
1!
1(
1P
1R
#3320
0!
0(
0P
0R
#3330
1!
1(
1P
1R
0K
0L
0M
#3340
0!
0(
0P
0R
#3350
1!
1(
1P
1R
#3360
0!
0(
0P
0R
#3370
1!
1(
1P
1R
1M
#3380
0!
0(
0P
0R
#3390
1!
1(
1P
1R
#3400
0!
0(
0P
0R
#3410
1!
1(
1P
1R
1I
0M
#3420
0!
0(
0P
0R
#3430
1!
1(
1P
1R
#3440
0!
0(
0P
0R
#3450
1!
1(
1P
1R
1M
#3460
0!
0(
0P
0R
#3470
1!
1(
1P
1R
#3480
0!
0(
0P
0R
#3490
1!
1(
1P
1R
#3500
0!
0(
0P
0R
#3510
1!
1(
1P
1R
#3520
0!
0(
0P
0R
#3530
1!
1(
1P
1R
1L
0M
#3540
0!
0(
0P
0R
#3550
1!
1(
1P
1R
#3560
0!
0(
0P
0R
#3570
1!
1(
1P
1R
0I
#3580
0!
0(
0P
0R
#3590
1!
1(
1P
1R
#3600
0!
0(
0P
0R
#3610
1!
1(
1P
1R
1M
#3620
0!
0(
0P
0R
#3630
1!
1(
1P
1R
#3640
0!
0(
0P
0R
#3650
1!
1(
1P
1R
1K
0L
0M
#3660
0!
0(
0P
0R
#3670
1!
1(
1P
1R
#3680
0!
0(
0P
0R
#3690
1!
1(
1P
1R
1M
#3700
0!
0(
0P
0R
#3710
1!
1(
1P
1R
#3720
0!
0(
0P
0R
#3730
1!
1(
1P
1R
1I
0K
0M
#3740
0!
0(
0P
0R
#3750
1!
1(
1P
1R
#3760
0!
0(
0P
0R
#3770
1!
1(
1P
1R
1M
#3780
0!
0(
0P
0R
#3790
1!
1(
1P
1R
#3800
0!
0(
0P
0R
#3810
1!
1(
1P
1R
#3820
0!
0(
0P
0R
#3830
1!
1(
1P
1R
#3840
0!
0(
0P
0R
#3850
1!
1(
1P
1R
1L
0M
#3860
0!
0(
0P
0R
#3870
1!
1(
1P
1R
#3880
0!
0(
0P
0R
#3890
1!
1(
1P
1R
0I
1K
#3900
0!
0(
0P
0R
#3910
1!
1(
1P
1R
#3920
0!
0(
0P
0R
#3930
1!
1(
1P
1R
1M
#3940
0!
0(
0P
0R
#3950
1!
1(
1P
1R
#3960
0!
0(
0P
0R
#3970
1!
1(
1P
1R
0K
0L
0M
#3980
0!
0(
0P
0R
#3990
1!
1(
1P
1R
#4000
0!
0(
0P
0R
#4010
1!
1(
1P
1R
1M
#4020
0!
0(
0P
0R
#4030
1!
1(
1P
1R
#4040
0!
0(
0P
0R
#4050
1!
1(
1P
1R
1I
0M
#4060
0!
0(
0P
0R
#4070
1!
1(
1P
1R
#4080
0!
0(
0P
0R
#4090
1!
1(
1P
1R
1M
#4100
0!
0(
0P
0R
#4110
1!
1(
1P
1R
#4120
0!
0(
0P
0R
#4130
1!
1(
1P
1R
#4140
0!
0(
0P
0R
#4150
1!
1(
1P
1R
#4160
0!
0(
0P
0R
#4170
1!
1(
1P
1R
1L
0M
#4180
0!
0(
0P
0R
#4190
1!
1(
1P
1R
#4200
0!
0(
0P
0R
#4210
1!
1(
1P
1R
0I
#4220
0!
0(
0P
0R
#4230
1!
1(
1P
1R
#4240
0!
0(
0P
0R
#4250
1!
1(
1P
1R
1M
#4260
0!
0(
0P
0R
#4270
1!
1(
1P
1R
#4280
0!
0(
0P
0R
#4290
1!
1(
1P
1R
1K
0L
0M
#4300
0!
0(
0P
0R
#4310
1!
1(
1P
1R
#4320
0!
0(
0P
0R
#4330
1!
1(
1P
1R
1M
#4340
0!
0(
0P
0R
#4350
1!
1(
1P
1R
#4360
0!
0(
0P
0R
#4370
1!
1(
1P
1R
1I
0K
0M
#4380
0!
0(
0P
0R
#4390
1!
1(
1P
1R
#4400
0!
0(
0P
0R
#4410
1!
1(
1P
1R
1M
#4420
0!
0(
0P
0R
#4430
1!
1(
1P
1R
#4440
0!
0(
0P
0R
#4450
1!
1(
1P
1R
#4460
0!
0(
0P
0R
#4470
1!
1(
1P
1R
#4480
0!
0(
0P
0R
#4490
1!
1(
1P
1R
1L
0M
#4500
0!
0(
0P
0R
#4510
1!
1(
1P
1R
#4520
0!
0(
0P
0R
#4530
1!
1(
1P
1R
0I
1K
#4540
0!
0(
0P
0R
#4550
1!
1(
1P
1R
#4560
0!
0(
0P
0R
#4570
1!
1(
1P
1R
1M
#4580
0!
0(
0P
0R
#4590
1!
1(
1P
1R
#4600
0!
0(
0P
0R
#4610
1!
1(
1P
1R
0K
0L
0M
#4620
0!
0(
0P
0R
#4630
1!
1(
1P
1R
#4640
0!
0(
0P
0R
#4650
1!
1(
1P
1R
1M
#4660
0!
0(
0P
0R
#4670
1!
1(
1P
1R
#4680
0!
0(
0P
0R
#4690
1!
1(
1P
1R
1I
0M
#4700
0!
0(
0P
0R
#4710
1!
1(
1P
1R
#4720
0!
0(
0P
0R
#4730
1!
1(
1P
1R
1M
#4740
0!
0(
0P
0R
#4750
1!
1(
1P
1R
#4760
0!
0(
0P
0R
#4770
1!
1(
1P
1R
#4780
0!
0(
0P
0R
#4790
1!
1(
1P
1R
#4800
0!
0(
0P
0R
#4810
1!
1(
1P
1R
1L
0M
#4820
0!
0(
0P
0R
#4830
1!
1(
1P
1R
#4840
0!
0(
0P
0R
#4850
1!
1(
1P
1R
0I
#4860
0!
0(
0P
0R
#4870
1!
1(
1P
1R
#4880
0!
0(
0P
0R
#4890
1!
1(
1P
1R
1M
#4900
0!
0(
0P
0R
#4910
1!
1(
1P
1R
#4920
0!
0(
0P
0R
#4930
1!
1(
1P
1R
1K
0L
0M
#4940
0!
0(
0P
0R
#4950
1!
1(
1P
1R
#4960
0!
0(
0P
0R
#4970
1!
1(
1P
1R
1M
#4980
0!
0(
0P
0R
#4990
1!
1(
1P
1R
#5000
0!
0(
0P
0R
#5010
1!
1(
1P
1R
1I
0K
0M
#5020
0!
0(
0P
0R
#5030
1!
1(
1P
1R
#5040
0!
0(
0P
0R
#5050
1!
1(
1P
1R
1M
#5060
0!
0(
0P
0R
#5070
1!
1(
1P
1R
#5080
0!
0(
0P
0R
#5090
1!
1(
1P
1R
#5100
0!
0(
0P
0R
#5110
1!
1(
1P
1R
#5120
0!
0(
0P
0R
#5130
1!
1(
1P
1R
1L
0M
#5140
0!
0(
0P
0R
#5150
1!
1(
1P
1R
#5160
0!
0(
0P
0R
#5170
1!
1(
1P
1R
0I
1K
#5180
0!
0(
0P
0R
#5190
1!
1(
1P
1R
#5200
0!
0(
0P
0R
#5210
1!
1(
1P
1R
1M
#5220
0!
0(
0P
0R
#5230
1!
1(
1P
1R
#5240
0!
0(
0P
0R
#5250
1!
1(
1P
1R
0K
0L
0M
#5260
0!
0(
0P
0R
#5270
1!
1(
1P
1R
#5280
0!
0(
0P
0R
#5290
1!
1(
1P
1R
1M
#5300
0!
0(
0P
0R
#5310
1!
1(
1P
1R
#5320
0!
0(
0P
0R
#5330
1!
1(
1P
1R
1I
0M
#5340
0!
0(
0P
0R
#5350
1!
1(
1P
1R
#5360
0!
0(
0P
0R
#5370
1!
1(
1P
1R
1M
#5380
0!
0(
0P
0R
#5390
1!
1(
1P
1R
#5400
0!
0(
0P
0R
#5410
1!
1(
1P
1R
#5420
0!
0(
0P
0R
#5430
1!
1(
1P
1R
#5440
0!
0(
0P
0R
#5450
1!
1(
1P
1R
1L
0M
#5460
0!
0(
0P
0R
#5470
1!
1(
1P
1R
#5480
0!
0(
0P
0R
#5490
1!
1(
1P
1R
0I
#5500
0!
0(
0P
0R
#5510
1!
1(
1P
1R
#5520
0!
0(
0P
0R
#5530
1!
1(
1P
1R
1M
#5540
0!
0(
0P
0R
#5550
1!
1(
1P
1R
#5560
0!
0(
0P
0R
#5570
1!
1(
1P
1R
1I
0J
1K
0L
0M
#5580
0!
0(
0P
0R
#5590
1!
1(
1P
1R
#5600
0!
0(
0P
0R
#5610
1!
1(
1P
1R
1M
#5620
0!
0(
0P
0R
#5630
1!
1(
1P
1R
#5640
0!
0(
0P
0R
#5650
1!
1(
1P
1R
1J
0K
1L
#5660
0!
0(
0P
0R
#5670
1!
1(
1P
1R
#5680
0!
0(
0P
0R
#5690
1!
1(
1P
1R
#5700
0!
0(
0P
0R
#5710
1!
1(
1P
1R
#5720
0!
0(
0P
0R
#5730
1!
1(
1P
1R
1K
0L
0M
#5740
0!
0(
0P
0R
#5750
1!
1(
1P
1R
#5760
0!
0(
0P
0R
#5770
1!
1(
1P
1R
1M
#5780
0!
0(
0P
0R
#5790
1!
1(
1P
1R
#5800
0!
0(
0P
0R
#5810
1!
1(
1P
1R
0J
1L
0M
#5820
0!
0(
0P
0R
#5830
1!
1(
1P
1R
#5840
0!
0(
0P
0R
#5850
1!
1(
1P
1R
1M
#5860
0!
0(
0P
0R
#5870
1!
1(
1P
1R
#5880
0!
0(
0P
0R
#5890
1!
1(
1P
1R
0K
0L
0M
#5900
0!
0(
0P
0R
#5910
1!
1(
1P
1R
#5920
0!
0(
0P
0R
#5930
1!
1(
1P
1R
1J
1L
1M
#5940
0!
0(
0P
0R
#5950
1!
1(
1P
1R
#5960
0!
0(
0P
0R
#5970
1!
1(
1P
1R
#5980
0!
0(
0P
0R
#5990
1!
1(
1P
1R
#6000
0!
0(
0P
0R
#6010
1!
1(
1P
1R
1K
0L
0M
#6020
0!
0(
0P
0R
#6030
1!
1(
1P
1R
#6040
0!
0(
0P
0R
#6050
1!
1(
1P
1R
1M
#6060
0!
0(
0P
0R
#6070
1!
1(
1P
1R
#6080
0!
0(
0P
0R
#6090
1!
1(
1P
1R
0J
0K
#6100
0!
0(
0P
0R
#6110
1!
1(
1P
1R
#6120
0!
0(
0P
0R
#6130
1!
1(
1P
1R
1L
0M
#6140
0!
0(
0P
0R
#6150
1!
1(
1P
1R
#6160
0!
0(
0P
0R
#6170
1!
1(
1P
1R
1M
#6180
0!
0(
0P
0R
#6190
1!
1(
1P
1R
#6200
0!
0(
0P
0R
#6210
1!
1(
1P
1R
1K
0L
#6220
0!
0(
0P
0R
#6230
1!
1(
1P
1R
#6240
0!
0(
0P
0R
#6250
1!
1(
1P
1R
1J
0K
1L
#6260
0!
0(
0P
0R
#6270
1!
1(
1P
1R
#6280
0!
0(
0P
0R
#6290
1!
1(
1P
1R
#6300
0!
0(
0P
0R
#6310
1!
1(
1P
1R
#6320
0!
0(
0P
0R
#6330
1!
1(
1P
1R
1K
0L
0M
#6340
0!
0(
0P
0R
#6350
1!
1(
1P
1R
#6360
0!
0(
0P
0R
#6370
1!
1(
1P
1R
1M
#6380
0!
0(
0P
0R
#6390
1!
1(
1P
1R
#6400
0!
0(
0P
0R
#6410
1!
1(
1P
1R
0J
1L
0M
#6420
0!
0(
0P
0R
#6430
1!
1(
1P
1R
#6440
0!
0(
0P
0R
#6450
1!
1(
1P
1R
1M
#6460
0!
0(
0P
0R
#6470
1!
1(
1P
1R
#6480
0!
0(
0P
0R
#6490
1!
1(
1P
1R
0K
0L
0M
#6500
0!
0(
0P
0R
#6510
1!
1(
1P
1R
#6520
0!
0(
0P
0R
#6530
1!
1(
1P
1R
1J
1L
1M
#6540
0!
0(
0P
0R
#6550
1!
1(
1P
1R
#6560
0!
0(
0P
0R
#6570
1!
1(
1P
1R
#6580
0!
0(
0P
0R
#6590
1!
1(
1P
1R
#6600
0!
0(
0P
0R
#6610
1!
1(
1P
1R
1K
0L
0M
#6620
0!
0(
0P
0R
#6630
1!
1(
1P
1R
#6640
0!
0(
0P
0R
#6650
1!
1(
1P
1R
1M
#6660
0!
0(
0P
0R
#6670
1!
1(
1P
1R
#6680
0!
0(
0P
0R
#6690
1!
1(
1P
1R
0J
0K
#6700
0!
0(
0P
0R
#6710
1!
1(
1P
1R
#6720
0!
0(
0P
0R
#6730
1!
1(
1P
1R
1L
0M
#6740
0!
0(
0P
0R
#6750
1!
1(
1P
1R
#6760
0!
0(
0P
0R
#6770
1!
1(
1P
1R
1M
#6780
0!
0(
0P
0R
#6790
1!
1(
1P
1R
#6800
0!
0(
0P
0R
#6810
1!
1(
1P
1R
1K
0L
#6820
0!
0(
0P
0R
#6830
1!
1(
1P
1R
#6840
0!
0(
0P
0R
#6850
1!
1(
1P
1R
1J
0K
1L
#6860
0!
0(
0P
0R
#6870
1!
1(
1P
1R
#6880
0!
0(
0P
0R
#6890
1!
1(
1P
1R
#6900
0!
0(
0P
0R
#6910
1!
1(
1P
1R
#6920
0!
0(
0P
0R
#6930
1!
1(
1P
1R
1K
0L
0M
#6940
0!
0(
0P
0R
#6950
1!
1(
1P
1R
#6960
0!
0(
0P
0R
#6970
1!
1(
1P
1R
1M
#6980
0!
0(
0P
0R
#6990
1!
1(
1P
1R
#7000
0!
0(
0P
0R
#7010
1!
1(
1P
1R
0J
1L
0M
#7020
0!
0(
0P
0R
#7030
1!
1(
1P
1R
#7040
0!
0(
0P
0R
#7050
1!
1(
1P
1R
1M
#7060
0!
0(
0P
0R
#7070
1!
1(
1P
1R
#7080
0!
0(
0P
0R
#7090
1!
1(
1P
1R
0K
0L
0M
#7100
0!
0(
0P
0R
#7110
1!
1(
1P
1R
#7120
0!
0(
0P
0R
#7130
1!
1(
1P
1R
1J
1L
1M
#7140
0!
0(
0P
0R
#7150
1!
1(
1P
1R
#7160
0!
0(
0P
0R
#7170
1!
1(
1P
1R
#7180
0!
0(
0P
0R
#7190
1!
1(
1P
1R
#7200
0!
0(
0P
0R
#7210
1!
1(
1P
1R
1K
0L
0M
#7220
0!
0(
0P
0R
#7230
1!
1(
1P
1R
#7240
0!
0(
0P
0R
#7250
1!
1(
1P
1R
1M
#7260
0!
0(
0P
0R
#7270
1!
1(
1P
1R
#7280
0!
0(
0P
0R
#7290
1!
1(
1P
1R
0J
0K
#7300
0!
0(
0P
0R
#7310
1!
1(
1P
1R
#7320
0!
0(
0P
0R
#7330
1!
1(
1P
1R
1L
0M
#7340
0!
0(
0P
0R
#7350
1!
1(
1P
1R
#7360
0!
0(
0P
0R
#7370
1!
1(
1P
1R
1M
#7380
0!
0(
0P
0R
#7390
1!
1(
1P
1R
#7400
0!
0(
0P
0R
#7410
1!
1(
1P
1R
1K
0L
#7420
0!
0(
0P
0R
#7430
1!
1(
1P
1R
#7440
0!
0(
0P
0R
#7450
1!
1(
1P
1R
1J
0K
1L
#7460
0!
0(
0P
0R
#7470
1!
1(
1P
1R
#7480
0!
0(
0P
0R
#7490
1!
1(
1P
1R
#7500
0!
0(
0P
0R
#7510
1!
1(
1P
1R
#7520
0!
0(
0P
0R
#7530
1!
1(
1P
1R
1K
0L
0M
#7540
0!
0(
0P
0R
#7550
1!
1(
1P
1R
#7560
0!
0(
0P
0R
#7570
1!
1(
1P
1R
1M
#7580
0!
0(
0P
0R
#7590
1!
1(
1P
1R
#7600
0!
0(
0P
0R
#7610
1!
1(
1P
1R
0J
1L
0M
#7620
0!
0(
0P
0R
#7630
1!
1(
1P
1R
#7640
0!
0(
0P
0R
#7650
1!
1(
1P
1R
1M
#7660
0!
0(
0P
0R
#7670
1!
1(
1P
1R
#7680
0!
0(
0P
0R
#7690
1!
1(
1P
1R
0K
0L
0M
#7700
0!
0(
0P
0R
#7710
1!
1(
1P
1R
#7720
0!
0(
0P
0R
#7730
1!
1(
1P
1R
1J
1L
1M
#7740
0!
0(
0P
0R
#7750
1!
1(
1P
1R
#7760
0!
0(
0P
0R
#7770
1!
1(
1P
1R
#7780
0!
0(
0P
0R
#7790
1!
1(
1P
1R
#7800
0!
0(
0P
0R
#7810
1!
1(
1P
1R
1K
0L
0M
#7820
0!
0(
0P
0R
#7830
1!
1(
1P
1R
#7840
0!
0(
0P
0R
#7850
1!
1(
1P
1R
1M
#7860
0!
0(
0P
0R
#7870
1!
1(
1P
1R
#7880
0!
0(
0P
0R
#7890
1!
1(
1P
1R
0J
0K
#7900
0!
0(
0P
0R
#7910
1!
1(
1P
1R
#7920
0!
0(
0P
0R
#7930
1!
1(
1P
1R
1L
0M
#7940
0!
0(
0P
0R
#7950
1!
1(
1P
1R
#7960
0!
0(
0P
0R
#7970
1!
1(
1P
1R
1M
#7980
0!
0(
0P
0R
#7990
1!
1(
1P
1R
#8000
0!
0(
0P
0R
#8010
1!
1(
1P
1R
1K
0L
#8020
0!
0(
0P
0R
#8030
1!
1(
1P
1R
#8040
0!
0(
0P
0R
#8050
1!
1(
1P
1R
1J
0K
1L
#8060
0!
0(
0P
0R
#8070
1!
1(
1P
1R
#8080
0!
0(
0P
0R
